[32mINFO    [0m root:base.py:12 正在初始化driver: <selenium.webdriver.edge.webdriver.WebDriver (session="9d9938e3a05cb08b7592f78db4cb75eb")>
[32mINFO    [0m root:page_mp_login.py:45 正在点击登录菜单
[32mINFO    [0m root:base.py:49 正在对：('css selector', '#loginmenu > a:nth-child(1)') 元素执行点击操作！
[32mINFO    [0m root:base.py:24 正在查找元素：('css selector', '#loginmenu > a:nth-child(1)')
[32mINFO    [0m root:page_mp_login.py:47 正在调用自媒体登录业务方法，用户名：jnzqzhang@163.com 密码：0000
[32mINFO    [0m root:base.py:24 正在查找元素：('css selector', '#loginname')
[32mINFO    [0m root:base.py:38 正在对：('css selector', '#loginname') 元素执行清空操作！
[32mINFO    [0m root:base.py:41 正在对：('css selector', '#loginname') 元素执行输入:jnzqzhang@163.com 操作！
[32mINFO    [0m root:base.py:24 正在查找元素：('css selector', '#loginpass')
[32mINFO    [0m root:base.py:38 正在对：('css selector', '#loginpass') 元素执行清空操作！
[32mINFO    [0m root:base.py:41 正在对：('css selector', '#loginpass') 元素执行输入:123456 操作！
[32mINFO    [0m root:base.py:24 正在查找元素：('css selector', '#logincode')
[32mINFO    [0m root:base.py:38 正在对：('css selector', '#logincode') 元素执行清空操作！
[32mINFO    [0m root:base.py:41 正在对：('css selector', '#logincode') 元素执行输入:0000 操作！
[32mINFO    [0m root:base.py:49 正在对：('css selector', 'button[onclick="doLogin(null)"]') 元素执行点击操作！
[32mINFO    [0m root:base.py:24 正在查找元素：('css selector', 'button[onclick="doLogin(null)"]')
[32mINFO    [0m root:base.py:24 正在查找元素：('css selector', '#loginmenu>a[href="/ucenter"]')
[32mINFO    [0m root:base.py:59 正在对：('css selector', '#loginmenu>a[href="/ucenter"]') 元素获取文本操作！，获取的文本值：欢迎你：小章
[32mINFO    [0m root:base.py:24 正在查找元素：('css selector', '#loginmenu>a[href="/ucenter"]')